LUMOS.vcd
$date
	Tue Jul 02 23:07:00 2024
$end
$version
	Icarus Verilog
$end
$timescale
	1ns
$end
$scope module LUMOS_Testbench $end
$var wire 32 ! f0 [31:0] $end
$var wire 32 " f1 [31:0] $end
$var wire 32 # f10 [31:0] $end
$var wire 32 $ f11 [31:0] $end
$var wire 32 % f12 [31:0] $end
$var wire 32 & f13 [31:0] $end
$var wire 32 ' f14 [31:0] $end
$var wire 32 ( f15 [31:0] $end
$var wire 32 ) f16 [31:0] $end
$var wire 32 * f17 [31:0] $end
$var wire 32 + f18 [31:0] $end
$var wire 32 , f19 [31:0] $end
$var wire 32 - f2 [31:0] $end
$var wire 32 . f20 [31:0] $end
$var wire 32 / f21 [31:0] $end
$var wire 32 0 f22 [31:0] $end
$var wire 32 1 f23 [31:0] $end
$var wire 32 2 f24 [31:0] $end
$var wire 32 3 f25 [31:0] $end
$var wire 32 4 f26 [31:0] $end
$var wire 32 5 f27 [31:0] $end
$var wire 32 6 f28 [31:0] $end
$var wire 32 7 f29 [31:0] $end
$var wire 32 8 f3 [31:0] $end
$var wire 32 9 f30 [31:0] $end
$var wire 32 : f31 [31:0] $end
$var wire 32 ; f4 [31:0] $end
$var wire 32 < f5 [31:0] $end
$var wire 32 = f6 [31:0] $end
$var wire 32 > f7 [31:0] $end
$var wire 32 ? f8 [31:0] $end
$var wire 32 @ f9 [31:0] $end
$var wire 32 A memoryData [31:0] $end
$var wire 32 B x0_zero [31:0] $end
$var wire 32 C x10_a0 [31:0] $end
$var wire 32 D x11_a1 [31:0] $end
$var wire 32 E x12_a2 [31:0] $end
$var wire 32 F x13_a3 [31:0] $end
$var wire 32 G x14_a4 [31:0] $end
$var wire 32 H x15_a5 [31:0] $end
$var wire 32 I x16_a6 [31:0] $end
$var wire 32 J x17_a7 [31:0] $end
$var wire 32 K x18_s2 [31:0] $end
$var wire 32 L x19_s3 [31:0] $end
$var wire 32 M x1_ra [31:0] $end
$var wire 32 N x20_s4 [31:0] $end
$var wire 32 O x21_s5 [31:0] $end
$var wire 32 P x22_s6 [31:0] $end
$var wire 32 Q x23_s7 [31:0] $end
$var wire 32 R x24_s8 [31:0] $end
$var wire 32 S x25_s9 [31:0] $end
$var wire 32 T x26_s10 [31:0] $end
$var wire 32 U x27_s11 [31:0] $end
$var wire 32 V x28_t3 [31:0] $end
$var wire 32 W x29_t4 [31:0] $end
$var wire 32 X x2_sp [31:0] $end
$var wire 32 Y x30_t5 [31:0] $end
$var wire 32 Z x31_t6 [31:0] $end
$var wire 32 [ x3_gp [31:0] $end
$var wire 32 \ x4_tp [31:0] $end
$var wire 32 ] x5_t0 [31:0] $end
$var wire 32 ^ x6_t1 [31:0] $end
$var wire 32 _ x7_t2 [31:0] $end
$var wire 32 ` x8_s0 [31:0] $end
$var wire 32 a x9_s1 [31:0] $end
$var wire 1 b trap $end
$var wire 1 c memoryReadWrite $end
$var wire 1 d memoryEnable $end
$var wire 32 e memoryAddress [31:0] $end
$var parameter 32 f CLK_PERIOD $end
$var reg 1 g clk $end
$var reg 32 h memoryData_reg [31:0] $end
$var reg 1 i memoryReady $end
$var reg 1 j reset $end
$scope module uut $end
$var wire 1 g clk $end
$var wire 32 k memoryData [31:0] $end
$var wire 1 i memoryReady $end
$var wire 1 j reset $end
$var wire 32 l readData2 [31:0] $end
$var wire 32 m readData1 [31:0] $end
$var wire 32 n immediate [31:0] $end
$var wire 32 o fpuResult [31:0] $end
$var wire 1 p fpuReady $end
$var wire 32 q fixedPointReadData2 [31:0] $end
$var wire 32 r fixedPointReadData1 [31:0] $end
$var wire 1 s aluZero $end
$var wire 1 t aluSign $end
$var wire 32 u aluResult [31:0] $end
$var parameter 32 v RESET_ADDRESS $end
$var reg 32 w FRS1 [31:0] $end
$var reg 32 x FRS2 [31:0] $end
$var reg 32 y RS1 [31:0] $end
$var reg 32 z RS2 [31:0] $end
$var reg 32 { aluOperand1 [31:0] $end
$var reg 32 | aluOperand2 [31:0] $end
$var reg 4 } aluOperation [3:0] $end
$var reg 32 ~ aluResultRegister [31:0] $end
$var reg 1 !" aluSignRegister $end
$var reg 2 "" aluSrcA [1:0] $end
$var reg 2 #" aluSrcB [1:0] $end
$var reg 1 $" aluZeroRegister $end
$var reg 1 %" fixedPointRegisterWriteEnable $end
$var reg 2 &" fixedPointRegisterWriteSource [1:0] $end
$var reg 32 '" fixedPointWriteData [31:0] $end
$var reg 2 (" fpuOperation [1:0] $end
$var reg 32 )" fpuResultRegister [31:0] $end
$var reg 3 *" funct3 [2:0] $end
$var reg 7 +" funct7 [6:0] $end
$var reg 1 ," instructionOrData $end
$var reg 3 -" instructionType [2:0] $end
$var reg 32 ." ir [31:0] $end
$var reg 1 /" irWrite $end
$var reg 32 0" memoryAddress [31:0] $end
$var reg 32 1" memoryDataRegister [31:0] $end
$var reg 1 2" memoryDataRegisterWrite $end
$var reg 1 d memoryEnable $end
$var reg 1 c memoryReadWrite $end
$var reg 5 3" nextState [4:0] $end
$var reg 7 4" opcode [6:0] $end
$var reg 32 5" pc [31:0] $end
$var reg 1 6" pcWrite $end
$var reg 1 7" registerWriteEnable $end
$var reg 2 8" registerWriteSource [1:0] $end
$var reg 5 9" state [4:0] $end
$var reg 1 b trap $end
$var reg 32 :" writeData [31:0] $end
$scope module arithmetic_logic_unit $end
$var wire 32 ;" operand_1 [31:0] $end
$var wire 32 <" operand_2 [31:0] $end
$var wire 4 =" operation [3:0] $end
$var reg 32 >" result [31:0] $end
$var reg 1 t sign $end
$var reg 1 s zero $end
$upscope $end
$scope module fixed_point_register_file $end
$var wire 1 g clk $end
$var wire 1 ?" read_enable_1 $end
$var wire 1 @" read_enable_2 $end
$var wire 5 A" read_index_1 [4:0] $end
$var wire 5 B" read_index_2 [4:0] $end
$var wire 1 j reset $end
$var wire 32 C" write_data [31:0] $end
$var wire 1 %" write_enable $end
$var wire 5 D" write_index [4:0] $end
$var parameter 32 E" DEPTH $end
$var parameter 32 F" WIDTH $end
$var reg 32 G" read_data_1 [31:0] $end
$var reg 32 H" read_data_2 [31:0] $end
$var integer 32 I" i [31:0] $end
$upscope $end
$scope module fixed_point_unit $end
$var wire 1 g clk $end
$var wire 32 J" operand_1 [31:0] $end
$var wire 32 K" operand_2 [31:0] $end
$var wire 2 L" operation [1:0] $end
$var wire 1 j reset $end
$var wire 32 M" multiplierCircuitResult [31:0] $end
$var parameter 3 N" ADD $end
$var parameter 32 O" FBITS $end
$var parameter 3 P" FIRSTMUL $end
$var parameter 3 Q" FOURTHMUL $end
$var parameter 2 R" INITIAL $end
$var parameter 3 S" INITIALSTATE $end
$var parameter 3 T" SECONDMUL $end
$var parameter 2 U" SQRT $end
$var parameter 3 V" THIRDMUL $end
$var parameter 32 W" WIDTH $end
$var reg 32 X" AA1 [31:0] $end
$var reg 32 Y" BB1 [31:0] $end
$var reg 32 Z" CC1 [31:0] $end
$var reg 32 [" DD1 [31:0] $end
$var reg 32 \" EE1 [31:0] $end
$var reg 32 ]" FF1 [31:0] $end
$var reg 16 ^" multiplierCircuitInput1 [15:0] $end
$var reg 16 _" multiplierCircuitInput2 [15:0] $end
$var reg 32 `" partialProduct1 [31:0] $end
$var reg 32 a" partialProduct2 [31:0] $end
$var reg 32 b" partialProduct3 [31:0] $end
$var reg 32 c" partialProduct4 [31:0] $end
$var reg 64 d" product [63:0] $end
$var reg 1 e" product_ready $end
$var reg 1 p ready $end
$var reg 32 f" result [31:0] $end
$var reg 32 g" root [31:0] $end
$var reg 1 h" root_ready $end
$var reg 3 i" state [2:0] $end
$var reg 1 j" state1 $end
$var reg 2 k" two_bit [1:0] $end
$scope module multiplier_circuit $end
$var wire 16 l" operand_1 [15:0] $end
$var wire 16 m" operand_2 [15:0] $end
$var reg 32 n" product [31:0] $end
$upscope $end
$upscope $end
$scope module immediate_generator $end
$var wire 32 o" instruction [31:0] $end
$var wire 3 p" instruction_type [2:0] $end
$var reg 32 q" immediate [31:0] $end
$upscope $end
$scope module register_file $end
$var wire 1 g clk $end
$var wire 1 r" read_enable_1 $end
$var wire 1 s" read_enable_2 $end
$var wire 5 t" read_index_1 [4:0] $end
$var wire 5 u" read_index_2 [4:0] $end
$var wire 1 j reset $end
$var wire 32 v" write_data [31:0] $end
$var wire 1 w" write_enable $end
$var wire 5 x" write_index [4:0] $end
$var parameter 32 y" DEPTH $end
$var parameter 32 z" WIDTH $end
$var reg 32 {" read_data_1 [31:0] $end
$var reg 32 |" read_data_2 [31:0] $end
$var integer 32 }" i [31:0] $end
$upscope $end
$upscope $end
$upscope $end
$enddefinitions $end
$comment Show the parameter values. $end
$dumpall
b100000 z"
b101 y"
b100000 W"
b11 V"
b1 U"
b10 T"
b0 S"
b0 R"
b100 Q"
b1 P"
b1010 O"
b101 N"
b100000 F"
b101 E"
b0 v
b100 f
$end
#0
$dumpvars
b100000 }"
bx |"
bx {"
bz x"
xw"
bz v"
bz u"
bz t"
1s"
1r"
bz q"
bx p"
bz o"
bx n"
bx m"
bx l"
bx k"
0j"
b0 i"
0h"
b0 g"
bz f"
0e"
b0 d"
bx c"
bx b"
bx a"
bx `"
bx _"
bx ^"
bx ]"
bx \"
bx ["
bx Z"
bx Y"
bx X"
bx M"
bz L"
bx K"
bx J"
b100000 I"
bx H"
bx G"
bz D"
bz C"
bz B"
bz A"
1@"
1?"
bz >"
bz ="
bz <"
bz ;"
bz :"
b0 9"
bz 8"
z7"
z6"
b0 5"
bz 4"
b1 3"
x2"
bx 1"
bz 0"
z/"
bz ."
bx -"
z,"
bz +"
bz *"
bx )"
bz ("
bz '"
bz &"
z%"
x$"
bz #"
bz ""
x!"
bx ~
bz }
bz |
bz {
bx z
bx y
bx x
bx w
bz u
zt
0s
bx r
bx q
0p
bz o
bz n
bx m
bx l
bz k
1j
0i
bz h
1g
bz e
0d
zc
xb
b0 a
b0 `
b0 _
b0 ^
b0 ]
b0 \
b0 [
b0 Z
b0 Y
b0 X
b0 W
b0 V
b0 U
b0 T
b0 S
b0 R
b0 Q
b0 P
b0 O
b0 N
b0 M
b0 L
b0 K
b0 J
b0 I
b0 H
b0 G
b0 F
b0 E
b0 D
b0 C
b0 B
bz A
b0 @
b0 ?
b0 >
b0 =
b0 <
b0 ;
b0 :
b0 9
b0 8
b0 7
b0 6
b0 5
b0 4
b0 3
b0 2
b0 1
b0 0
b0 /
b0 .
b0 -
b0 ,
b0 +
b0 *
b0 )
b0 (
b0 '
b0 &
b0 %
b0 $
b0 #
b0 "
b0 !
$end
#2
0g
#4
b1 3"
bz )"
z!"
0$"
bz ~
b100000 I"
b100000 }"
1g
#6
0g
#8
b100000 }"
b100000 I"
1g
#10
0g
#12
b100000 I"
b100000 }"
1g
#14
0g
#16
b100000 }"
b100000 I"
1g
#18
0g
#20
0j
b100000 I"
b100000 }"
1g
#22
0g
#24
b0 e
b0 0"
bz A
bz k
0,"
0c
1d
b10 3"
b1 9"
1g
#26
0g
#28
0,"
0c
b10 3"
b10 9"
1g
#30
0g
#32
1g
#34
0g
#36
1g
#38
0g
#40
1g
#42
1/"
0,"
0c
b11 3"
1i
b100000100110111 A
b100000100110111 k
b100000100110111 h
0g
#44
0t
b100 |
b100 <"
b0 {
b0 ;"
bz e
bz 0"
b100 u
b100 >"
b0 l
b0 |"
b0 m
b0 {"
b0 q
b0 H"
b0 r
b0 G"
16"
b0 }
b0 ="
b1 #"
b0 ""
0d
z,"
z/"
zc
b100 3"
b0 t"
b0 u"
b10 x"
b0 A"
b0 B"
b10 D"
b0 +"
b100 *"
b110111 4"
b11 9"
0i
bz A
bz k
bz h
b100000100110111 ."
b100000100110111 o"
1g
#46
0g
#48
zt
bz |
bz <"
b100000000000000 n
b100000000000000 q"
bz u
bz >"
b100 -"
b100 p"
bz #"
bz ""
bz }
bz ="
z6"
b101 3"
bz {
bz ;"
b100 9"
b100 5"
b0 z
b0 y
b0 x
b0 K"
b0 w
b0 J"
0!"
b100 ~
1g
#50
0g
#52
0t
b100000000000000 :"
b100000000000000 v"
b100000000000000 |
b100000000000000 <"
b0 {
b0 ;"
1w"
b100000000000000 u
b100000000000000 >"
17"
b1 8"
b0 }
b0 ="
b10 #"
b11 ""
b1 3"
b101 9"
z!"
bz ~
1g
#54
0g
#56
zt
b100 e
b100 0"
bz :"
bz v"
bz |
bz <"
bz {
bz ;"
bz A
bz k
xw"
bz u
bz >"
0,"
0c
1d
z7"
bz 8"
bz #"
bz ""
bz }
bz ="
b10 3"
b100000000000000 X
b1 9"
0!"
b100000000000000 ~
1g
#58
0g
#60
0,"
0c
b10 3"
b10 9"
z!"
bz ~
1g
#62
0g
#64
1g
#66
0g
#68
1g
#70
0g
#72
1g
#74
1/"
0,"
0c
b11 3"
1i
b11000000000000010000000100010011 A
b11000000000000010000000100010011 k
b11000000000000010000000100010011 h
0g
#76
0t
b100 |
b100 <"
b100 {
b100 ;"
bz e
bz 0"
b1000 u
b1000 >"
b100000000000000 m
b100000000000000 {"
16"
b0 }
b0 ="
b1 #"
b0 ""
0d
z,"
z/"
zc
b100 3"
b10 t"
b10 A"
b11000000000000010000000000000000 n
b11000000000000010000000000000000 q"
b1100000 +"
b0 *"
b10011 4"
b11 9"
0i
bz A
bz k
bz h
b11000000000000010000000100010011 ."
b11000000000000010000000100010011 o"
1g
#78
0g
#80
zt
bz |
bz <"
b11111111111111111111110000000000 n
b11111111111111111111110000000000 q"
bz u
bz >"
b1 -"
b1 p"
bz #"
bz ""
bz }
bz ="
z6"
b101 3"
bz {
bz ;"
b100 9"
b1000 5"
b100000000000000 y
0!"
b1000 ~
1g
#82
0g
#84
0t
b11110000000000 :"
b11110000000000 v"
b11111111111111111111110000000000 |
b11111111111111111111110000000000 <"
b100000000000000 {
b100000000000000 ;"
1w"
b11110000000000 u
b11110000000000 >"
17"
b1 8"
b0 }
b0 ="
b10 #"
b1 ""
b1 3"
b101 9"
z!"
bz ~
1g
#86
0g
#88
zt
b1000 e
b1000 0"
bz :"
bz v"
bz |
bz <"
bz {
bz ;"
bz A
bz k
xw"
bz u
bz >"
b11110000000000 m
b11110000000000 {"
0,"
0c
1d
z7"
bz 8"
bz #"
bz ""
bz }
bz ="
b10 3"
b11110000000000 X
b1 9"
0!"
b11110000000000 ~
1g
#90
0g
#92
0,"
0c
b10 3"
b10 9"
z!"
bz ~
b11110000000000 y
1g
#94
0g
#96
1g
#98
0g
#100
1g
#102
0g
#104
1g
#106
1/"
0,"
0c
b11 3"
1i
b11000100000010000000110010011 A
b11000100000010000000110010011 k
b11000100000010000000110010011 h
0g
#108
0t
b100 |
b100 <"
b1000 {
b1000 ;"
bz e
bz 0"
b1100 u
b1100 >"
16"
b0 }
b0 ="
b1 #"
b0 ""
0d
z,"
z/"
zc
b100 3"
b1000 u"
b11 x"
b1000 B"
b11 D"
b110001000 n
b110001000 q"
b1100 +"
b11 9"
0i
bz A
bz k
bz h
b11000100000010000000110010011 ."
b11000100000010000000110010011 o"
1g
#110
0g
#112
zt
bz |
bz <"
bz u
bz >"
bz #"
bz ""
bz }
bz ="
z6"
b101 3"
bz {
bz ;"
b100 9"
b1100 5"
0!"
b1100 ~
1g
#114
0g
#116
0t
b11110110001000 :"
b11110110001000 v"
b110001000 |
b110001000 <"
b11110000000000 {
b11110000000000 ;"
1w"
b11110110001000 u
b11110110001000 >"
17"
b1 8"
b0 }
b0 ="
b10 #"
b1 ""
b1 3"
b101 9"
z!"
bz ~
1g
#118
0g
#120
zt
b1100 e
b1100 0"
bz :"
bz v"
bz |
bz <"
bz {
bz ;"
bz A
bz k
xw"
bz u
bz >"
0,"
0c
1d
z7"
bz 8"
bz #"
bz ""
bz }
bz ="
b10 3"
b11110110001000 [
b1 9"
0!"
b11110110001000 ~
1g
#122
0g
#124
0,"
0c
b10 3"
b10 9"
z!"
bz ~
1g
#126
0g
#128
1g
#130
0g
#132
1g
#134
0g
#136
1g
#138
1/"
0,"
0c
b11 3"
1i
b10010000010000111 A
b10010000010000111 k
b10010000010000111 h
0g
#140
0t
b100 |
b100 <"
b1100 {
b1100 ;"
bz e
bz 0"
b10000 u
b10000 >"
16"
b0 }
b0 ="
b1 #"
b0 ""
0d
z,"
z/"
zc
b100 3"
b0 u"
b1 x"
b0 B"
b1 D"
b0 n
b0 q"
b0 +"
b10 *"
b111 4"
b11 9"
0i
bz A
bz k
bz h
b10010000010000111 ."
b10010000010000111 o"
1g
#142
0g
#144
zt
bz |
bz <"
bz u
bz >"
bz #"
bz ""
bz }
bz ="
z6"
b101 3"
bz {
bz ;"
b100 9"
b10000 5"
0!"
b10000 ~
1g
#146
0g
#148
0t
b0 |
b0 <"
b11110000000000 {
b11110000000000 ;"
b11110000000000 u
b11110000000000 >"
b0 }
b0 ="
b10 #"
b1 ""
b1010 3"
b101 9"
z!"
bz ~
1g
#150
0g
#152
b11110000000000 e
b11110000000000 0"
bz A
bz k
1,"
0c
1d
b11 #"
b10 ""
b0 }
b0 ="
b1011 3"
b1010 9"
0!"
b11110000000000 ~
1g
#154
0g
#156
1,"
b11 #"
b10 ""
b0 }
b0 ="
0c
b1011 3"
b1011 9"
1g
#158
0g
#160
1g
#162
0g
#164
1g
#166
0g
#168
1g
#170
12"
1,"
b11 #"
b10 ""
b0 }
b0 ="
0c
b1100 3"
1i
b100000000000 A
b100000000000 k
b100000000000 h
0g
#172
zt
b100000000000 '"
b100000000000 C"
bz e
bz 0"
bz |
bz <"
bz {
bz ;"
bz u
bz >"
0d
1%"
b0 &"
z,"
bz #"
bz ""
bz }
bz ="
zc
b1 3"
b1100 9"
0i
bz A
bz k
bz h
b100000000000 1"
1g
#174
0g
#176
b10000 e
b10000 0"
bz '"
bz C"
bz A
bz k
0,"
0c
1d
z%"
bz &"
b10 3"
b100000000000 "
b1 9"
z!"
bz ~
1g
#178
0g
#180
0,"
0c
b10 3"
b10 9"
bz 1"
1g
#182
0g
#184
1g
#186
0g
#188
1g
#190
0g
#192
1g
#194
1/"
0,"
0c
b11 3"
1i
b10000010010000100000111 A
b10000010010000100000111 k
b10000010010000100000111 h
0g
#196
0t
b100 |
b100 <"
b10000 {
b10000 ;"
bz e
bz 0"
b10100 u
b10100 >"
16"
b0 }
b0 ="
b1 #"
b0 ""
0d
z,"
z/"
zc
b100 3"
b100 u"
b10 x"
b100 B"
b10 D"
b100 n
b100 q"
b11 9"
0i
bz A
bz k
bz h
b10000010010000100000111 1"
b10000010010000100000111 ."
b10000010010000100000111 o"
1g
#198
0g
#200
zt
bz |
bz <"
bz u
bz >"
bz #"
bz ""
bz }
bz ="
z6"
b101 3"
bz {
bz ;"
b100 9"
b10100 5"
0!"
b10100 ~
1g
#202
0g
#204
0t
b100 |
b100 <"
b11110000000000 {
b11110000000000 ;"
b11110000000100 u
b11110000000100 >"
b0 }
b0 ="
b10 #"
b1 ""
b1010 3"
b101 9"
z!"
bz ~
1g
#206
0g
#208
b11110000000100 e
b11110000000100 0"
b0 |
b0 <"
b11110000000100 {
b11110000000100 ;"
bz A
bz k
1,"
0c
1d
b11 #"
b10 ""
b0 }
b0 ="
b1011 3"
b1010 9"
0!"
b11110000000100 ~
1g
#210
0g
#212
1,"
b11 #"
b10 ""
b0 }
b0 ="
0c
b1011 3"
b1011 9"
bz 1"
1g
#214
0g
#216
1g
#218
0g
#220
1g
#222
0g
#224
1g
#226
1,"
b11 #"
b10 ""
b0 }
b0 ="
0c
b1100 3"
1i
b1100010000000000 A
b1100010000000000 k
b1100010000000000 h
0g
#228
zt
b1100010000000000 '"
b1100010000000000 C"
bz e
bz 0"
bz |
bz <"
bz {
bz ;"
bz u
bz >"
0d
1%"
b0 &"
z,"
bz #"
bz ""
bz }
bz ="
zc
b1 3"
b1100 9"
0i
bz A
bz k
bz h
b1100010000000000 1"
1g
#230
0g
#232
b10100 e
b10100 0"
bz '"
bz C"
bz A
bz k
b1100010000000000 r
b1100010000000000 G"
0,"
0c
1d
z%"
bz &"
b10 3"
b1100010000000000 -
b1 9"
z!"
bz ~
1g
#234
0g
#236
0,"
0c
b10 3"
b10 9"
b1100010000000000 w
b1100010000000000 J"
bz 1"
1g
#238
0g
#240
1g
#242
0g
#244
1g
#246
0g
#248
1g
#250
1/"
0,"
0c
b11 3"
1i
b10000000100001000010101010011 A
b10000000100001000010101010011 k
b10000000100001000010101010011 h
0g
#252
0t
b100 |
b100 <"
b10100 {
b10100 ;"
bz e
bz 0"
b11000 u
b11000 >"
b0 m
b0 {"
b100000000000 q
b100000000000 H"
b100000000000 r
b100000000000 G"
16"
b0 }
b0 ="
b1 #"
b0 ""
0d
z,"
z/"
zc
b100 3"
b1 t"
b1 u"
b1010 x"
b1 A"
b1 B"
b1010 D"
b100000001 n
b100000001 q"
b1000 +"
b0 *"
b1010011 4"
b11 9"
0i
bz A
bz k
bz h
b10000000100001000010101010011 1"
b10000000100001000010101010011 ."
b10000000100001000010101010011 o"
1g
#254
0g
#256
zt
bz |
bz <"
bz n
bz q"
bz u
bz >"
b0 -"
b0 p"
bz #"
bz ""
bz }
bz ="
z6"
b101 3"
bz {
bz ;"
b100 9"
b11000 5"
b0 y
b100000000000 x
b100000000000 K"
b100000000000 w
b100000000000 J"
0!"
b11000 ~
1g
#258
0g
#260
b0 o
b0 f"
b10 ("
b10 L"
b1101 3"
b101 9"
z!"
bz ~
1g
#262
0g
#264
b1101 3"
b10000000000000000000000 M"
b10000000000000000000000 n"
b1101 9"
b1 i"
b0 c"
b0 b"
b0 a"
b0 `"
b100000000000 _"
b100000000000 m"
b100000000000 ^"
b100000000000 l"
b0 )"
1g
#266
0g
#268
b0 M"
b0 n"
b10 i"
b0 ^"
b0 l"
b10000000000000000000000 `"
1g
#270
0g
#272
b11 i"
b0 _"
b0 m"
b100000000000 ^"
b100000000000 l"
1g
#274
0g
#276
b100 i"
b0 ^"
b0 l"
1g
#278
0g
#280
b101 i"
1g
#282
0g
#284
b1000000000000 '"
b1000000000000 C"
1%"
b11 &"
b1 3"
1p
b1000000000000 o
b1000000000000 f"
1e"
b0 i"
b10000000000000000000000 d"
1g
#286
0g
#288
0p
bz o
bz f"
b11000 e
b11000 0"
bz ("
bz L"
bz '"
bz C"
bz A
bz k
0,"
0c
1d
z%"
bz &"
b10 3"
b10000000000000000000000 M"
b10000000000000000000000 n"
b1000000000000 #
b1 9"
b1 i"
b0 `"
b100000000000 _"
b100000000000 m"
b100000000000 ^"
b100000000000 l"
b1000000000000 )"
1g
#290
0g
#292
0,"
0c
b10 3"
b0 M"
b0 n"
b10 9"
bz )"
bz 1"
b10 i"
b0 ^"
b0 l"
b10000000000000000000000 `"
1g
#294
0g
#296
b11 i"
b0 _"
b0 m"
b100000000000 ^"
b100000000000 l"
1g
#298
0g
#300
b100 i"
b0 ^"
b0 l"
1g
#302
0g
#304
b101 i"
1g
#306
1/"
0,"
0c
b11 3"
1i
b10000001000010000101001010011 A
b10000001000010000101001010011 k
b10000001000010000101001010011 h
0g
#308
0t
b100 |
b100 <"
b11000 {
b11000 ;"
bz e
bz 0"
b11100 u
b11100 >"
b11110000000000 l
b11110000000000 |"
b11110000000000 m
b11110000000000 {"
b1100010000000000 q
b1100010000000000 H"
b1100010000000000 r
b1100010000000000 G"
16"
b0 }
b0 ="
b1 #"
b0 ""
0d
z,"
z/"
zc
b100 3"
b10 t"
b10 u"
b10100 x"
b10 A"
b10 B"
b10100 D"
b11 9"
0i
bz A
bz k
bz h
b10000001000010000101001010011 1"
b10000001000010000101001010011 ."
b10000001000010000101001010011 o"
b0 i"
1g
#310
0g
#312
zt
bz |
bz <"
bz u
bz >"
bz #"
bz ""
bz }
bz ="
z6"
b101 3"
bz {
bz ;"
b100 9"
b11100 5"
b11110000000000 z
b11110000000000 y
b1100010000000000 x
b1100010000000000 K"
b1100010000000000 w
b1100010000000000 J"
0!"
b11100 ~
1g
#314
0g
#316
1p
b1000000000000 o
b1000000000000 f"
b10 ("
b10 L"
b1101 3"
b101 9"
z!"
bz ~
1g
#318
0g
#320
b1000000000000 '"
b1000000000000 C"
1%"
b11 &"
b1 3"
b10010110000100000000000000000000 M"
b10010110000100000000000000000000 n"
b1101 9"
b1 i"
b0 `"
b1100010000000000 _"
b1100010000000000 m"
b1100010000000000 ^"
b1100010000000000 l"
b1000000000000 )"
1g
#322
0g
#324
0p
bz o
bz f"
b11100 e
b11100 0"
bz ("
bz L"
bz '"
bz C"
bz A
bz k
0,"
0c
1d
z%"
bz &"
b10 3"
b0 M"
b0 n"
b1 9"
b1000000000000 .
b10 i"
b0 ^"
b0 l"
b10010110000100000000000000000000 `"
1g
#326
0g
#328
0,"
0c
b10 3"
b10 9"
b11 i"
b0 _"
b0 m"
b1100010000000000 ^"
b1100010000000000 l"
bz 1"
bz )"
1g
#330
0g
#332
b100 i"
b0 ^"
b0 l"
1g
#334
0g
#336
b101 i"
1g
#338
0g
#340
b0 i"
b10010110000100000000000000000000 d"
1g
#342
1/"
0,"
0c
b11 3"
1i
b1010001010000111101010011 A
b1010001010000111101010011 k
b1010001010000111101010011 h
0g
#344
0t
b100 |
b100 <"
b11100 {
b11100 ;"
bz e
bz 0"
b100000 u
b100000 >"
b0 l
b0 |"
b0 m
b0 {"
b1000000000000 q
b1000000000000 H"
b1000000000000 r
b1000000000000 G"
16"
b0 }
b0 ="
b1 #"
b0 ""
0d
z,"
z/"
zc
b100 3"
b1010 t"
b10100 u"
b11110 x"
b1010 A"
b10100 B"
b11110 D"
b0 +"
b11 9"
b1010001010000111101010011 ."
b1010001010000111101010011 o"
b1010001010000111101010011 1"
0i
bz A
bz k
bz h
1g
#346
0g
#348
zt
bz |
bz <"
bz u
bz >"
bz #"
bz ""
bz }
bz ="
z6"
b101 3"
bz {
bz ;"
b100 9"
0!"
b100000 ~
b1000000000000 x
b1000000000000 K"
b1000000000000 w
b1000000000000 J"
b0 z
b0 y
b100000 5"
1g
#350
0g
#352
1p
b10000000000000 o
b10000000000000 f"
b0 ("
b0 L"
b1101 3"
b101 9"
z!"
bz ~
1g
#354
0g
#356
b10000000000000 '"
b10000000000000 C"
1%"
b11 &"
b1 3"
b1101 9"
b10000000000000 )"
1g
#358
0g
#360
0p
bz o
bz f"
b100000 e
b100000 0"
bz ("
bz L"
bz '"
bz C"
bz A
bz k
0,"
0c
1d
z%"
bz &"
b10 3"
b10000000000000 9
b1 9"
1g
#362
0g
#364
0,"
0c
b10 3"
b10 9"
bz )"
bz 1"
1g
#366
0g
#368
1g
#370
0g
#372
1g
#374
0g
#376
1g
#378
1/"
0,"
0c
b11 3"
1i
b1011000000011110000000111010011 A
b1011000000011110000000111010011 k
b1011000000011110000000111010011 h
0g
#380
0t
b100 |
b100 <"
b100000 {
b100000 ;"
bz e
bz 0"
b100100 u
b100100 >"
b0 q
b0 H"
b10000000000000 r
b10000000000000 G"
16"
b0 }
b0 ="
b1 #"
b0 ""
0d
z,"
z/"
zc
b100 3"
b11110 t"
b0 u"
b11 x"
b11110 A"
b0 B"
b11 D"
b101100 +"
b11 9"
0i
bz A
bz k
bz h
b1011000000011110000000111010011 1"
b1011000000011110000000111010011 ."
b1011000000011110000000111010011 o"
1g
#382
0g
#384
zt
bz |
bz <"
bz u
bz >"
bz #"
bz ""
bz }
bz ="
z6"
b101 3"
bz {
bz ;"
b100 9"
b100100 5"
b0 x
b0 K"
b10000000000000 w
b10000000000000 J"
0!"
b100100 ~
1g
#386
0g
#388
b0 o
b0 f"
b11 ("
b11 L"
b1101 3"
b101 9"
z!"
bz ~
1g
#390
0g
#392
b1101 3"
b1101 9"
b0 ["
1j"
b10101 \"
b1 Y"
b0 X"
b0 )"
1g
#394
0g
#396
b10100 \"
bx X"
bx00 ]"
b1 ["
b11111111111111111111111111111111 Z"
1g
#398
0g
#400
b10011 \"
b101 Y"
bx0000 ]"
b11 ["
bx Z"
1g
#402
0g
#404
b10010 \"
b1101 Y"
bx000000 ]"
b111 ["
1g
#406
0g
#408
b10001 \"
b11101 Y"
bx00000000 ]"
b1111 ["
1g
#410
0g
#412
b10000 \"
b111101 Y"
bx0000000000 ]"
b11111 ["
1g
#414
0g
#416
b1111 \"
b1111101 Y"
bx000000000000 ]"
b111111 ["
1g
#418
0g
#420
b1110 \"
b11111101 Y"
bx00000000000000 ]"
b1111111 ["
1g
#422
0g
#424
b1101 \"
b111111101 Y"
bx0000000000000000 ]"
b11111111 ["
1g
#426
0g
#428
b1100 \"
b1111111101 Y"
bx000000000000000000 ]"
b111111111 ["
1g
#430
0g
#432
b1011 \"
b11111111101 Y"
bx00000000000000000000 ]"
b1111111111 ["
1g
#434
0g
#436
b1010 \"
b111111111101 Y"
bx0000000000000000000000 ]"
b11111111111 ["
1g
#438
0g
#440
b1001 \"
b1111111111101 Y"
bx000000000000000000000000 ]"
b111111111111 ["
1g
#442
0g
#444
b1000 \"
b11111111111101 Y"
bx00000000000000000000000000 ]"
b1111111111111 ["
1g
#446
0g
#448
b111 \"
b111111111111101 Y"
bx0000000000000000000000000000 ]"
b11111111111111 ["
1g
#450
0g
#452
b110 \"
b1111111111111101 Y"
bx000000000000000000000000000000 ]"
b111111111111111 ["
1g
#454
0g
#456
b101 \"
b11111111111111101 Y"
b0 ]"
b1111111111111111 ["
1g
#458
0g
#460
b100 \"
b111111111111111101 Y"
b0 k"
b11111111111111111 ["
1g
#462
0g
#464
b11 \"
b1111111111111111101 Y"
b111111111111111111 ["
1g
#466
0g
#468
b10 \"
b11111111111111111101 Y"
b1111111111111111111 ["
1g
#470
0g
#472
b1 \"
b111111111111111111101 Y"
b11111111111111111111 ["
1g
#474
0g
#476
b0 \"
b1111111111111111111101 Y"
b111111111111111111111 ["
1g
#478
0g
